verif/project_1/project_1.sim/sim_1/behav/xsim/FIR.vcd
$date
   Thu Feb 20 02:22:21 2025
$end
$version
  2018.2
$end
$timescale
  1ps
$end
$scope module FIR_Filter_tb $end
$var reg 32 ! PHASE_INC1 $end
$var reg 32 " PHASE_INC2 $end
$var reg 1 # clk_tb $end
$var reg 1 $ rst_tb $end
$var wire 32 % y_tb [31:0] $end
$var reg 1 & cordic_clk $end
$var reg 1 ' phase_tvalid $end
$var reg 16 ( phase_2 [15:0] $end
$var reg 16 ) phase_1 [15:0] $end
$var wire 1 * signal_2_tvalid $end
$var wire 1 + signal_1_tvalid $end
$var wire 16 , sin_2 [15:0] $end
$var wire 16 - cos_2 [15:0] $end
$var wire 16 . sin_1 [15:0] $end
$var wire 16 / cos_1 [15:0] $end
$var reg 16 0 noisy_signal [15:0] $end
$var parameter 32 1 TAPS [31:0] $end
$var parameter 32 2 DATA_WIDTH [31:0] $end
$var parameter 32 3 COEFF_WIDTH [31:0] $end
$var parameter 0 4 clk_period $end
$var parameter 32 5 cordic_clk_period [31:0] $end
$var parameter 16 6 PI_POS [15:0] $end
$scope module cordic_2 $end
$var wire 1 7 aclk $end
$var wire 32 8 m_axis_dout_tdata [31:0] $end
$var wire 1 * m_axis_dout_tvalid $end
$var wire 16 9 s_axis_phase_tdata [15:0] $end
$var wire 1 : s_axis_phase_tvalid $end
$var wire 1 ; NLW_U0_m_axis_dout_tlast_UNCONNECTED $end
$var wire 1 < NLW_U0_s_axis_cartesian_tready_UNCONNECTED $end
$var wire 1 = NLW_U0_s_axis_phase_tready_UNCONNECTED $end
$var wire 1 > NLW_U0_m_axis_dout_tuser_UNCONNECTED [0:0] $end
$scope module U0 $end
$var wire 1 ? aclken $end
$var wire 1 @ aresetn $end
$var wire 1 = s_axis_phase_tready $end
$var wire 1 A s_axis_phase_tuser [0:0] $end
$var wire 1 B s_axis_phase_tlast $end
$var wire 1 C s_axis_cartesian_tvalid $end
$var wire 1 < s_axis_cartesian_tready $end
$var wire 1 D s_axis_cartesian_tuser [0:0] $end
$var wire 1 E s_axis_cartesian_tlast $end
$var wire 32 F s_axis_cartesian_tdata [31:0] $end
$var wire 1 G m_axis_dout_tready $end
$var wire 1 > m_axis_dout_tuser [0:0] $end
$var wire 1 ; m_axis_dout_tlast $end
$var wire 1 H \<const0>  $end
$var wire 1 I \<const1>  $end
$var wire 1 7 aclk $end
$var wire 32 8 m_axis_dout_tdata [31:0] $end
$var wire 1 * m_axis_dout_tvalid $end
$var wire 16 9 s_axis_phase_tdata [15:0] $end
$var wire 1 : s_axis_phase_tvalid $end
$var wire 1 J NLW_i_synth_m_axis_dout_tlast_UNCONNECTED $end
$var wire 1 K NLW_i_synth_s_axis_cartesian_tready_UNCONNECTED $end
$var wire 1 L NLW_i_synth_s_axis_phase_tready_UNCONNECTED $end
$var wire 1 M NLW_i_synth_m_axis_dout_tuser_UNCONNECTED [0:0] $end
$upscope $end
$upscope $end
$scope module cordic_1 $end
$var wire 1 N aclk $end
$var wire 32 O m_axis_dout_tdata [31:0] $end
$var wire 1 + m_axis_dout_tvalid $end
$var wire 16 P s_axis_phase_tdata [15:0] $end
$var wire 1 Q s_axis_phase_tvalid $end
$var wire 1 R NLW_U0_m_axis_dout_tlast_UNCONNECTED $end
$var wire 1 S NLW_U0_s_axis_cartesian_tready_UNCONNECTED $end
$var wire 1 T NLW_U0_s_axis_phase_tready_UNCONNECTED $end
$var wire 1 U NLW_U0_m_axis_dout_tuser_UNCONNECTED [0:0] $end
$scope module U0 $end
$var wire 1 V aclken $end
$var wire 1 W aresetn $end
$var wire 1 T s_axis_phase_tready $end
$var wire 1 X s_axis_phase_tuser [0:0] $end
$var wire 1 Y s_axis_phase_tlast $end
$var wire 1 Z s_axis_cartesian_tvalid $end
$var wire 1 S s_axis_cartesian_tready $end
$var wire 1 [ s_axis_cartesian_tuser [0:0] $end
$var wire 1 \ s_axis_cartesian_tlast $end
$var wire 32 ] s_axis_cartesian_tdata [31:0] $end
$var wire 1 ^ m_axis_dout_tready $end
$var wire 1 U m_axis_dout_tuser [0:0] $end
$var wire 1 R m_axis_dout_tlast $end
$var wire 1 _ \<const0>  $end
$var wire 1 ` \<const1>  $end
$var wire 1 N aclk $end
$var wire 32 O m_axis_dout_tdata [31:0] $end
$var wire 1 + m_axis_dout_tvalid $end
$var wire 16 P s_axis_phase_tdata [15:0] $end
$var wire 1 Q s_axis_phase_tvalid $end
$var wire 1 a NLW_i_synth_m_axis_dout_tlast_UNCONNECTED $end
$var wire 1 b NLW_i_synth_s_axis_cartesian_tready_UNCONNECTED $end
$var wire 1 c NLW_i_synth_s_axis_phase_tready_UNCONNECTED $end
$var wire 1 d NLW_i_synth_m_axis_dout_tuser_UNCONNECTED [0:0] $end
$upscope $end
$upscope $end
$scope module DUT $end
$var wire 1 e clk $end
$var wire 1 f rst $end
$var wire 16 g x [15:0] $end
$var reg 32 h y [31:0] $end
$var integer 32 i i $end
$var parameter 32 j TAPS [31:0] $end
$var parameter 32 k DATA_WIDTH [31:0] $end
$var parameter 32 l COEFF_WIDTH [31:0] $end
$var parameter 32 m SYM_TAPS [31:0] $end
$upscope $end
$scope task initialize $end
$upscope $end
$scope task reset $end
$upscope $end
$upscope $end
$enddefinitions $end
#0
$dumpvars
b0 !
b0 "
0#
1$
bx %
0&
0'
b0 (
b0 )
x*
x+
bx ,
bx -
bx .
bx /
b0 0
b110001 1
b10000 2
b10000 3
r32.552 4
b1010 5
b110010010001000 6
07
bx 8
b0 9
0:
0;
1<
1=
0>
1?
1@
0A
0B
0C
0D
0E
b0 F
0G
0H
1I
0J
0K
0L
0M
0N
bx O
b0 P
0Q
0R
1S
1T
0U
1V
1W
0X
0Y
0Z
0[
0\
b0 ]
0^
0_
1`
0a
0b
0c
0d
0e
1f
b0 g
bx h
bx i
b110001 j
b10000 k
b10000 l
b11001 m
$end
#100
0*
0+
b0 ,
b0 -
b0 .
b0 /
b0 8
b0 O
#5000
1&
1'
b0 (
b0 )
17
1:
1N
1Q
#10000
0&
07
0N
#15000
1&
1'
b0 (
b0 )
17
1N
#16280
1#
b0 0
1e
bx h
b110001 i
#20000
0&
07
0N
#25000
1&
1'
b0 (
b0 )
17
1N
#30000
0&
07
0N
#32560
0#
0e
#35000
1&
1'
b0 (
b0 )
17
1N
#40000
0&
07
0N
#45000
1&
1'
b0 (
b0 )
17
1N
#48830
0$
b0 %
0f
b0 h
b110000 i
#48840
1#
b0 0
1e
b0 h
b110000 i
#50000
0&
07
0N
#55000
1&
1'
b0 (
b0 )
17
1N
#60000
0&
07
0N
#65000
1&
1'
b0 (
b0 )
17
1N
#65120
0#
0e
#70000
0&
07
0N
#75000
1&
1'
b0 (
b0 )
17
1N
#80000
0&
07
0N
#81380
b100000101 !
b1000001010 "
1$
1f
#81400
1#
b0 0
1e
b0 h
b110001 i
#85000
1&
1'
b1000001010 (
b100000101 )
17
b1000001010 9
1N
b100000101 P
#90000
0&
07
0N
#95000
1&
1'
b10000010100 (
b1000001010 )
17
b10000010100 9
1N
b1000001010 P
#97680
0#
0e
#100000
0&
07
0N
#105000
1&
1'
b11000011110 (
b1100001111 )
17
b11000011110 9
1N
b1100001111 P
#110000
0&
07
0N
#113960
1#
b0 0
1e
b0 h
b110001 i
#115000
1&
1'
b100000101000 (
b10000010100 )
17
b100000101000 9
1N
b10000010100 P
#120000
0&
07
0N
#125000
1&
1'
b101000110010 (
b10100011001 )
17
b101000110010 9
1N
b10100011001 P
#130000
0&
07
0N
#130240
0#
0e
#135000
1&
1'
b110000111100 (
b11000011110 )
17
b110000111100 9
1N
b11000011110 P
#140000
0&
07
0N
#145000
1&
1'
b111001000110 (
b11100100011 )
17
b111001000110 9
1N
b11100100011 P
#146520
1#
b0 0
1e
b0 h
b110001 i
#150000
0&
07
0N
#155000
1&
1'
b1000001010000 (
b100000101000 )
17
b1000001010000 9
1N
b100000101000 P
#160000
0&
07
0N
#162800
0#
0e
#165000
1&
1'
b1001001011010 (
b100100101101 )
17
b1001001011010 9
1N
b100100101101 P
#170000
0&
07
0N
#175000
1&
1'
b1010001100100 (
b101000110010 )
17
b1010001100100 9
1N
b101000110010 P
#179080
1#
b0 0
1e
b0 h
b110001 i
#180000
0&
07
0N
#185000
1&
1'
b1011001101110 (
b101100110111 )
17
b1011001101110 9
1N
b101100110111 P
#190000
0&
07
0N
#195000
1&
1'
b1100001111000 (
b110000111100 )
17
b1100001111000 9
1N
b110000111100 P
#195360
0#
0e
#200000
0&
07
0N
#205000
1&
1'
b1101010000010 (
b110101000001 )
17
b1101010000010 9
1N
b110101000001 P
#210000
0&
07
0N
#211640
1#
b0 0
1e
b0 h
b110001 i
#215000
1&
1'
b1110010001100 (
b111001000110 )
17
b1110010001100 9
1N
b111001000110 P
#220000
0&
07
0N
#225000
1&
1'
b1111010010110 (
b111101001011 )
17
b1111010010110 9
1N
b111101001011 P
#227920
0#
0e
#230000
0&
07
0N
#235000
1&
1'
b10000010100000 (
b1000001010000 )
17
b10000010100000 9
1N
b1000001010000 P
#240000
0&
07
0N
#244200
1#
b0 0
1e
b0 h
b110001 i
#245000
1&
1'
b10001010101010 (
b1000101010101 )
17
b10001010101010 9
1N
b1000101010101 P
#250000
0&
07
0N
#255000
1&
1'
b10010010110100 (
b1001001011010 )
17
b10010010110100 9
1N
b1001001011010 P
#260000
0&
07
0N
#260480
0#
0e
#265000
1&
1'
b10011010111110 (
b1001101011111 )
17
b10011010111110 9
1N
b1001101011111 P
#270000
0&
07
0N
#275000
1&
1'
b10100011001000 (
b1010001100100 )
17
b10100011001000 9
1N
b1010001100100 P
#276760
1#
b0 0
1e
b0 h
b110001 i
#280000
0&
07
0N
#285000
1&
1'
b10101011010010 (
b1010101101001 )
17
b10101011010010 9
1N
b1010101101001 P
#290000
0&
07
0N
#293040
0#
0e
#295000
1&
1'
b10110011011100 (
b1011001101110 )
17
b10110011011100 9
1N
b1011001101110 P
#295100
1*
1+
b100000100011 ,
b11111101111010 -
b10000010010 .
b11111111011110 /
b1000001000110011111101111010 8
b100000100100011111111011110 O
#300000
0&
07
0N
#305000
1&
1'
b10111011100110 (
b1011101110011 )
17
b10111011100110 9
1N
b1011101110011 P
#305100
b110000101001 ,
b11111011010101 -
b11000011100 .
b11111110110100 /
b1100001010010011111011010101 8
b110000111000011111110110100 O
#309320
1#
b1001001000101 0
1e
b1001001000101 g
b0 h
b110001 i
#310000
0&
07
0N
#315000
1&
1'
b11000011110000 (
b1100001111000 )
17
b11000011110000 9
1N
b1100001111000 P
#315100
b1000000100011 ,
b11110111101110 -
b100000100011 .
b11111101111010 /
b10000001000110011110111101110 8
b1000001000110011111101111010 O
#320000
0&
07
0N
#325000
1&
1'
b11001011111010 (
b1100101111101 )
17
b11001011111010 9
1N
b1100101111101 P
#325100
b1010000001100 ,
b11110011000111 -
b101000100111 .
b11111100110000 /
b10100000011000011110011000111 8
b1010001001110011111100110000 O
#325600
0#
0e
#330000
0&
07
0N
#335000
1&
1'
b11010100000100 (
b1101010000010 )
17
b11010100000100 9
1N
b1101010000010 P
#335100
b1011111100000 ,
b11101101100000 -
b110000101001 .
b11111011010101 /
b10111111000000011101101100000 8
b1100001010010011111011010101 O
#340000
0&
07
0N
#341880
1#
b11111111111111010110111001001100 %
b10010000001001 0
1e
b10010000001001 g
b11111111111111010110111001001100 h
b110001 i
#345000
1&
1'
b11011100001110 (
b1101110000111 )
17
b11011100001110 9
1N
b1101110000111 P
#345100
b1101110011011 ,
b11100110111101 -
b111000101000 .
b11111001101001 /
b11011100110110011100110111101 8
b1110001010000011111001101001 O
#350000
0&
07
0N
#355000
1&
1'
b11100100011000 (
b1110010001100 )
17
b11100100011000 9
1N
b1110010001100 P
#355100
b1111100111010 ,
b11011111011101 -
b1000000100011 .
b11110111101110 /
b11111001110100011011111011101 8
b10000001000110011110111101110 O
#358160
0#
0e
#360000
0&
07
0N
#365000
1&
1'
b11101100100010 (
b1110110010001 )
17
b11101100100010 9
1N
b1110110010001 P
#365100
b10001010111001 ,
b11010111000010 -
b1001000011010 .
b11110101100010 /
b100010101110010011010111000010 8
b10010000110100011110101100010 O
#370000
0&
07
0N
#374440
1#
b1100100011010110 %
b11010011010011 0
1e
b11010011010011 g
b1100100011010110 h
b110001 i
#375000
1&
1'
b11110100101100 (
b1111010010110 )
17
b11110100101100 9
1N
b1111010010110 P
#375100
b10011000010100 ,
b11001101110000 -
b1010000001100 .
b11110011000111 /
b100110000101000011001101110000 8
b10100000011000011110011000111 O
#380000
0&
07
0N
#385000
1&
1'
b11111100110110 (
b1111110011011 )
17
b11111100110110 9
1N
b1111110011011 P
#385100
b10100101000110 ,
b11000011101001 -
b1010111111001 .
b11110000011100 /
b101001010001100011000011101001 8
b10101111110010011110000011100 O
#390000
0&
07
0N
#390720
0#
0e
#395000
1&
1'
b100000101000000 (
b10000010100000 )
17
b100000101000000 9
1N
b10000010100000 P
#395100
b10110001001110 ,
b10111000101111 -
b1011111100000 .
b11101101100000 /
b101100010011100010111000101111 8
b10111111000000011101101100000 O
#400000
0&
07
0N
#405000
1&
1'
b100001101001010 (
b10000110100101 )
17
b100001101001010 9
1N
b10000110100101 P
#405100
b10111100101000 ,
b10101101000100 -
b1100111000001 .
b11101010010110 /
b101111001010000010101101000100 8
b11001110000010011101010010110 O
#407000
1#
b11001101001000011000 %
b100100011101001 0
1e
b100100011101001 g
b11001101001000011000 h
b110001 i
#410000
0&
07
0N
#415000
1&
1'
b100010101010100 (
b10001010101010 )
17
b100010101010100 9
1N
b10001010101010 P
#415100
b11000111010000 ,
b10100000101101 -
b1101110011011 .
b11100110111101 /
b110001110100000010100000101101 8
b11011100110110011100110111101 O
#420000
0&
07
0N
#423280
0#
0e
#425000
1&
1'
b100011101011110 (
b10001110101111 )
17
b100011101011110 9
1N
b10001110101111 P
#425100
b11010001000101 ,
b10010011101101 -
b1110101101110 .
b11100011010100 /
b110100010001010010010011101101 8
b11101011011100011100011010100 O
#430000
0&
07
0N
#435000
1&
1'
b100100101101000 (
b10010010110100 )
17
b100100101101000 9
1N
b10010010110100 P
#435100
b11011010000101 ,
b10000110000100 -
b1111100111010 .
b11011111011101 /
b110110100001010010000110000100 8
b11111001110100011011111011101 O
#439560
1#
b111101110011111001011 %
b101010110111111 0
1e
b101010110111111 g
b111101110011111001011 h
b110001 i
#440000
0&
07
0N
#445000
1&
1'
b100101101110010 (
b10010110111001 )
17
b100101101110010 9
1N
b10010110111001 P
#445100
b11100010001011 ,
b1110111111010 -
b10000011111111 .
b11011011010110 /
b111000100010110001110111111010 8
b100000111111110011011011010110 O
#450000
0&
07
0N
#455000
1&
1'
b100110101111100 (
b10011010111110 )
17
b100110101111100 9
1N
b10011010111110 P
#455100
b11101001010110 ,
b1101001010001 -
b10001010111001 .
b11010111000010 /
b111010010101100001101001010001 8
b100010101110010011010111000010 O
#455840
0#
0e
#460000
0&
07
0N
#465000
1&
1'
b100111110000110 (
b10011111000011 )
17
b100111110000110 9
1N
b10011111000011 P
#465100
b11101111100101 ,
b1011010001101 -
b10010001101011 .
b11010010100000 /
b111011111001010001011010001101 8
b100100011010110011010010100000 O
#470000
0&
07
0N
#472120
1#
b1100001111101001101011 %
b110000001010000 0
1e
b110000001010000 g
b1100001111101001101011 h
b110001 i
#475000
1&
1'
b101000110010000 (
b10100011001000 )
17
b101000110010000 9
1N
b10100011001000 P
#475100
b11110100110101 ,
b1001010110001 -
b10011000010100 .
b11001101110000 /
b111101001101010001001010110001 8
b100110000101000011001101110000 O
#480000
0&
07
0N
#485000
1&
1'
b101001110011010 (
b10100111001101 )
17
b101001110011010 9
1N
b10100111001101 P
#485100
b11111001000110 ,
b111011000010 -
b10011110110010 .
b11001000110011 /
b111110010001100000111011000010 8
b100111101100100011001000110011 O
#488400
0#
0e
#490000
0&
07
0N
#495000
1&
1'
b101010110100100 (
b10101011010010 )
17
b101010110100100 9
1N
b10101011010010 P
#495100
b11111100010110 ,
b101011000011 -
b10100101000110 .
b11000011101001 /
b111111000101100000101011000011 8
b101001010001100011000011101001 O
#500000
0&
07
0N
#504680
1#
b1101100110111100011111 %
b110100001011100 0
1e
b110100001011100 g
b1101100110111100011111 h
b110001 i
#505000
1&
1'
b101011110101110 (
b10101111010111 )
17
b101011110101110 9
1N
b10101111010111 P
#505100
b11111110100101 ,
b11010110111 -
b10101011010000 .
b10111110010010 /
b111111101001010000011010110111 8
b101010110100000010111110010010 O
#510000
0&
07
0N
#515000
1&
1'
b101100110111000 (
b10110011011100 )
17
b101100110111000 9
1N
b10110011011100 P
#515100
b11111111110001 ,
b1010100111 -
b10110001001110 .
b10111000101111 /
b111111111100010000001010100111 8
b101100010011100010111000101111 O
#520000
0&
07
0N
#520960
0#
0e
#525000
1&
1'
b101101111000010 (
b10110111100001 )
17
b101101111000010 9
1N
b10110111100001 P
#525100
b11111111111011 ,
b1111111010010100 -
b10110111000001 .
b10110010111111 /
b111111111110111111111010010100 8
b101101110000010010110010111111 O
#530000
0&
07
0N
#535000
1&
1'
b101110111001100 (
b10111011100110 )
17
b101110111001100 9
1N
b10111011100110 P
#535100
b11111111000011 ,
b1111101010000010 -
b10111100101000 .
b10101101000100 /
b111111110000111111101010000010 8
b101111001010000010101101000100 O
#537240
1#
b1010110010111010000011 %
b110111011101011 0
1e
b110111011101011 g
b1010110010111010000011 h
b110001 i
#540000
0&
07
0N
#545000
1&
1'
b101111111010110 (
b10111111101011 )
17
b101111111010110 9
1N
b10111111101011 P
#545100
b11111101001000 ,
b1111011001110100 -
b11000010000011 .
b10100110111110 /
b111111010010001111011001110100 8
b110000100000110010100110111110 O
#550000
0&
07
0N
#553520
0#
0e
#555000
1&
1'
b110000111100000 (
b11000011110000 )
17
b110000111100000 9
1N
b11000011110000 P
#555100
b11111010001100 ,
b1111001001110001 -
b11000111010000 .
b10100000101101 /
b111110100011001111001001110001 8
b110001110100000010100000101101 O
#560000
0&
07
0N
#565000
1&
1'
b110001111101010 (
b11000111110101 )
17
b110001111101010 9
1N
b11000111110101 P
#565100
b11110110001110 ,
b1110111001111101 -
b11001100010010 .
b10011010010010 /
b111101100011101110111001111101 8
b110011000100100010011010010010 O
#569800
1#
b110001000001100110011 %
b111000010100000 0
1e
b111000010100000 g
b110001000001100110011 h
b110001 i
#570000
0&
07
0N
#575000
1&
1'
b1001110011100100 (
b11001011111010 )
17
b1001110011100100 9
1N
b11001011111010 P
#575100
b11110001010001 ,
b1110101010011011 -
b11010001000101 .
b10010011101101 /
b111100010100011110101010011011 8
b110100010001010010010011101101 O
#580000
0&
07
0N
#585000
1&
1'
b1001111011101110 (
b11001111111111 )
17
b1001111011101110 9
1N
b11001111111111 P
#585100
b11101011010101 ,
b1110011011001111 -
b11010101101100 .
b10001100111100 /
b111010110101011110011011001111 8
b110101011011000010001100111100 O
#586080
0#
0e
#590000
0&
07
0N
#595000
1&
1'
b1010000011111000 (
b11010100000100 )
17
b1010000011111000 9
1N
b11010100000100 P
#595100
b11100100011100 ,
b1110001100011101 -
b11011010000101 .
b10000110000100 /
b111001000111001110001100011101 8
b110110100001010010000110000100 O
#600000
0&
07
0N
#602360
1#
b100100111101011111101 %
b110111110100001 0
1e
b110111110100001 g
b100100111101011111101 h
b110001 i
#605000
1&
1'
b1010001100000010 (
b11011000001001 )
17
b1010001100000010 9
1N
b11011000001001 P
#605100
b11011100100111 ,
b1101111110001000 -
b11011110001111 .
b1111111000011 /
b110111001001111101111110001000 8
b110111100011110001111111000011 O
#610000
0&
07
0N
#615000
1&
1'
b1010010100001100 (
b11011100001110 )
17
b1010010100001100 9
1N
b11011100001110 P
#615100
b11010011111001 ,
b1101110000010110 -
b11100010001011 .
b1110111111010 /
b110100111110011101110000010110 8
b111000100010110001110111111010 O
#618640
0#
0e
#620000
0&
07
0N
#625000
1&
1'
b1010011100010110 (
b11100000010011 )
17
b1010011100010110 9
1N
b11100000010011 P
#625100
b11001010010100 ,
b1101100011001010 -
b11100101111000 .
b1110000101001 /
b110010100101001101100011001010 8
b111001011110000001110000101001 O
#630000
0&
07
0N
#634920
1#
b1001011111010001111110 %
b110110000001100 0
1e
b110110000001100 g
b1001011111010001111110 h
b110001 i
#635000
1&
1'
b1010100100100000 (
b11100100011000 )
17
b1010100100100000 9
1N
b11100100011000 P
#635100
b10111111111011 ,
b1101010110100110 -
b11101001010110 .
b1101001010001 /
b101111111110111101010110100110 8
b111010010101100001101001010001 O
#640000
0&
07
0N
#645000
1&
1'
b1010101100101010 (
b11101000011101 )
17
b1010101100101010 9
1N
b11101000011101 P
#645100
b10110100110000 ,
b1101001010101101 -
b11101100100101 .
b1100001110010 /
b101101001100001101001010101101 8
b111011001001010001100001110010 O
#650000
0&
07
0N
#651200
0#
0e
#655000
1&
1'
b1010110100110100 (
b11101100100010 )
17
b1010110100110100 9
1N
b11101100100010 P
#655100
b10101000110110 ,
b1100111111100100 -
b11101111100101 .
b1011010001101 /
b101010001101101100111111100100 8
b111011111001010001011010001101 O
#660000
0&
07
0N
#665000
1&
1'
b1010111100111110 (
b11110000100111 )
17
b1010111100111110 9
1N
b11110000100111 P
#665100
b10011100010000 ,
b1100110101001101 -
b11110010010101 .
b1010010100010 /
b100111000100001100110101001101 8
b111100100101010001010010100010 O
#667480
1#
b10010110000110010000100 %
b110001110100101 0
1e
b110001110100101 g
b10010110000110010000100 h
b110001 i
#670000
0&
07
0N
#675000
1&
1'
b1011000101001000 (
b11110100101100 )
17
b1011000101001000 9
1N
b11110100101100 P
#675100
b10001111000001 ,
b1100101011101011 -
b11110100110101 .
b1001010110001 /
b100011110000011100101011101011 8
b111101001101010001001010110001 O
#680000
0&
07
0N
#683760
0#
0e
#685000
1&
1'
b1011001101010010 (
b11111000110001 )
17
b1011001101010010 9
1N
b11111000110001 P
#685100
b10000001001100 ,
b1100100010111111 -
b11110111000101 .
b1000010111100 /
b100000010011001100100010111111 8
b111101110001010001000010111100 O
#690000
0&
07
0N
#695000
1&
1'
b1011010101011100 (
b11111100110110 )
17
b1011010101011100 9
1N
b11111100110110 P
#695100
b1110010110111 ,
b1100011011001101 -
b11111001000110 .
b111011000010 /
b11100101101111100011011001101 8
b111110010001100000111011000010 O
#700000
0&
07
0N
#700040
1#
b11001001011001101011010 %
b101101011111101 0
1e
b101101011111101 g
b11001001011001101011010 h
b110001 i
#705000
1&
1'
b1011011101100110 (
b100000000111011 )
17
b1011011101100110 9
1N
b100000000111011 P
#705100
b1100100000100 ,
b1100010100010111 -
b11111010110110 .
b110011000100 /
b11001000001001100010100010111 8
b111110101101100000110011000100 O
#710000
0&
07
0N
#715000
1&
1'
b1011100101110000 (
b100000101000000 )
17
b1011100101110000 9
1N
b100000101000000 P
#715100
b1010100110111 ,
b1100001110011110 -
b11111100010110 .
b101011000011 /
b10101001101111100001110011110 8
b111111000101100000101011000011 O
#716320
0#
0e
#720000
0&
07
0N
#725000
1&
1'
b1011101101111010 (
b100001001000101 )
17
b1011101101111010 9
1N
b100001001000101 P
#725100
b1000101010100 ,
b1100001001100100 -
b11111101100110 .
b100010111101 /
b10001010101001100001001100100 8
b111111011001100000100010111101 O
#730000
0&
07
0N
#732600
1#
b10100111101001010100001 %
b101000010111010 0
1e
b101000010111010 g
b10100111101001010100001 h
b110001 i
#735000
1&
1'
b1011110110000100 (
b100001101001010 )
17
b1011110110000100 9
1N
b100001101001010 P
#735100
b110101011111 ,
b1100000101101001 -
b11111110100101 .
b11010110111 /
b1101010111111100000101101001 8
b111111101001010000011010110111 O
#740000
0&
07
0N
#745000
1&
1'
b1011111110001110 (
b100010001001111 )
17
b1011111110001110 9
1N
b100010001001111 P
#745100
b100101011010 ,
b1100000010110000 -
b11111111010011 .
b10010110000 /
b1001010110101100000010110000 8
b111111110100110000010010110000 O
#748880
0#
0e
#750000
0&
07
0N
#755000
1&
1'
b1100000110011000 (
b100010101010100 )
17
b1100000110011000 9
1N
b100010101010100 P
#755100
b10101001101 ,
b1100000000111000 -
b11111111110001 .
b1010100111 /
b101010011011100000000111000 8
b111111111100010000001010100111 O
#760000
0&
07
0N
#765000
1&
1'
b1100001110100010 (
b100011001011001 )
17
b1100001110100010 9
1N
b100011001011001 P
#765100
b100111011 ,
b1100000000000010 -
b11111111111111 .
b10011101 /
b1001110111100000000000010 8
b111111111111110000000010011101 O
#765160
1#
b101111101011000101101 %
b100000100111010 0
1e
b100000100111010 g
b101111101011000101101 h
b110001 i
#770000
0&
07
0N
#775000
1&
1'
b1100010110101100 (
b100011101011110 )
17
b1100010110101100 9
1N
b100011101011110 P
#775100
b1111110100101000 ,
b1100000000010000 -
b11111111111011 .
b1111111010010100 /
b11111101001010001100000000010000 8
b111111111110111111111010010100 O
#780000
0&
07
0N
#781440
0#
0e
#785000
1&
1'
b1100011110110110 (
b100100001100011 )
17
b1100011110110110 9
1N
b100100001100011 P
#785100
b1111100100011000 ,
b1100000001011111 -
b11111111100111 .
b1111110010001011 /
b11111001000110001100000001011111 8
b111111111001111111110010001011 O
#790000
0&
07
0N
#795000
1&
1'
b1100100111000000 (
b100100101101000 )
17
b1100100111000000 9
1N
b100100101101000 P
#795100
b1111010100001101 ,
b1100000011110001 -
b11111111000011 .
b1111101010000010 /
b11110101000011011100000011110001 8
b111111110000111111101010000010 O
#797720
1#
b11111111110110001101010001000111 %
b11010011010000 0
1e
b11010011010000 g
b11111111110110001101010001000111 h
b110001 i
#800000
0&
07
0N
#805000
1&
1'
b1100101111001010 (
b100101001101101 )
17
b1100101111001010 9
1N
b100101001101101 P
#805100
b1111000100001110 ,
b1100000111000100 -
b11111110001110 .
b1111100001111001 /
b11110001000011101100000111000100 8
b111111100011101111100001111001 O
#810000
0&
07
0N
#814000
0#
0e
#815000
1&
1'
b1100110111010100 (
b100101101110010 )
17
b1100110111010100 9
1N
b100101101110010 P
#815100
b1110110100100000 ,
b1100001011011000 -
b11111101001000 .
b1111011001110100 /
b11101101001000001100001011011000 8
b111111010010001111011001110100 O
#820000
0&
07
0N
#825000
1&
1'
b1100111111011110 (
b100110001110111 )
17
b1100111111011110 9
1N
b100110001110111 P
#825100
b1110100101000101 ,
b1100010000101100 -
b11111011110010 .
b1111010001110001 /
b11101001010001011100010000101100 8
b111110111100101111010001110001 O
#830000
0&
07
0N
#830280
1#
b11111111110011010110101010101011 %
b10100000110111 0
1e
b10100000110111 g
b11111111110011010110101010101011 h
b110001 i
#835000
1&
1'
b1101000111101000 (
b100110101111100 )
17
b1101000111101000 9
1N
b100110101111100 P
#835100
b1110010110000010 ,
b1100010110111101 -
b11111010001100 .
b1111001001110001 /
b11100101100000101100010110111101 8
b111110100011001111001001110001 O
#840000
0&
07
0N
#845000
1&
1'
b1101001111110010 (
b100111010000001 )
17
b1101001111110010 9
1N
b100111010000001 P
#845100
b1110000111011011 ,
b1100011110001011 -
b11111000010101 .
b1111000001110101 /
b11100001110110111100011110001011 8
b111110000101011111000001110101 O
#846560
0#
0e
#850000
0&
07
0N
#855000
1&
1'
b1101010111111100 (
b100111110000110 )
17
b1101010111111100 9
1N
b100111110000110 P
#855100
b1101111001010010 ,
b1100100110010100 -
b11110110001110 .
b1110111001111101 /
b11011110010100101100100110010100 8
b111101100011101110111001111101 O
#860000
0&
07
0N
#862840
1#
b100000011000110101000 %
b1101111100000 0
1e
b1101111100000 g
b100000011000110101000 h
b110001 i
#865000
1&
1'
b1101100000000110 (
b101000010001011 )
17
b1101100000000110 9
1N
b101000010001011 P
#865100
b1101101011101011 ,
b1100101111010110 -
b11110011111000 .
b1110110010001001 /
b11011010111010111100101111010110 8
b111100111110001110110010001001 O
#870000
0&
07
0N
#875000
1&
1'
b1101101000010000 (
b101000110010000 )
17
b1101101000010000 9
1N
b101000110010000 P
#875100
b1101011110101101 ,
b1100111001001101 -
b11110001010001 .
b1110101010011011 /
b11010111101011011100111001001101 8
b111100010100011110101010011011 O
#879120
0#
0e
#880000
0&
07
0N
#885000
1&
1'
b1101110000011010 (
b101001010010101 )
17
b1101110000011010 9
1N
b101001010010101 P
#885100
b1101010010010111 ,
b1101000011111000 -
b11101110011011 .
b1110100010110010 /
b11010100100101111101000011111000 8
b111011100110111110100010110010 O
#890000
0&
07
0N
#895000
1&
1'
b1101111000100100 (
b101001110011010 )
17
b1101111000100100 9
1N
b101001110011010 P
#895100
b1101000110110000 ,
b1101001111010100 -
b11101011010101 .
b1110011011001111 /
b11010001101100001101001111010100 8
b111010110101011110011011001111 O
#895400
1#
b11101101111100000111110 %
b110010000101 0
1e
b110010000101 g
b11101101111100000111110 h
b110001 i
#900000
0&
07
0N
#905000
1&
1'
b1110000000101110 (
b101010010011111 )
17
b1110000000101110 9
1N
b101010010011111 P
#905100
b1100111011110111 ,
b1101011011011110 -
b11101000000000 .
b1110010011110011 /
b11001110111101111101011011011110 8
b111010000000001110010011110011 O
#910000
0&
07
0N
#911680
0#
0e
#915000
1&
1'
b1110001000111000 (
b101010110100100 )
17
b1110001000111000 9
1N
b101010110100100 P
#915100
b1100110001110011 ,
b1101101000010010 -
b11100100011100 .
b1110001100011101 /
b11001100011100111101101000010010 8
b111001000111001110001100011101 O
#920000
0&
07
0N
#925000
1&
1'
b1110010001000010 (
b101011010101001 )
17
b1110010001000010 9
1N
b101011010101001 P
#925100
b1100101000100010 ,
b1101110101110000 -
b11100000101001 .
b1110000101010000 /
b11001010001000101101110101110000 8
b111000001010011110000101010000 O
#927960
1#
b101000011001110010001010 %
b1001001011 0
1e
b1001001011 g
b101000011001110010001010 h
b110001 i
#930000
0&
07
0N
#935000
1&
1'
b1110011001001100 (
b101011110101110 )
17
b1110011001001100 9
1N
b101011110101110 P
